Clustering and differential usage of repertoire CDR3 sequences • CellaRepertorium
…
tidy.PermuteTestList(perm5)
#> # A tibble: 100 × 7
#>    statistics observed expected p.value mc.se contrast_name contrast            
#>         <dbl>    <dbl>    <dbl>   <dbl> <dbl> <chr>         <chr>               
#>  1  -2.00e+ 0    -4.67    0.677    0.12 0.346 1             1, -0.3333333333333…
#>  2  -3   e+ 0    -4.67    0.677    0.12 0.346 1             1, -0.3333333333333…
#>  3  -2.00e+ 0    -4.67    0.677    0.12 0.346 1             1, -0.3333333333333…
#>  4   1.67e+ 0    -4.67    0.677    0.12 0.346 1             1, -0.3333333333333…
#>  5   1.67e+ 0    -4.67    0.677    0.12 0.346 1             1, -0.3333333333333…
#>  6  -8.33e+ 0    -4.67    0.677    0.12 0.346 1             1, -0.3333333333333…
#>  7  -7   e+ 0    -4.67    0.677    0.12 0.346 1             1, -0.3333333333333…
#>  8  -3.33e- 1    -4.67    0.677    0.12 0.346 1             1, -0.3333333333333…
#>  9  -2.67e+ 0    -4.67    0.677    0.12 0.346 1             1, -0.3333333333333…
#> 10   2.78e-16    -4.67    0.677    0.12 0.346 1             1, -0.3333333333333…
#> # … with 90 more rows
…
