Tests for independence between labels and covariates using permutation of cells — cluster_permute_test • CellaRepertorium
…
tidy.PermuteTest(clust_test)
#> # A tibble: 50 × 5
#>    statistics observed expected p.value  mc.se
#>         <dbl>    <dbl>    <dbl>   <dbl>  <dbl>
#>  1      0.6       0.25    0.731    0.02 0.0364
#>  2      1         0.25    0.731    0.02 0.0364
#>  3      0.25      0.25    0.731    0.02 0.0364
#>  4      0.6       0.25    0.731    0.02 0.0364
#>  5      0.6       0.25    0.731    0.02 0.0364
#>  6      1         0.25    0.731    0.02 0.0364
#>  7      0.833     0.25    0.731    0.02 0.0364
#>  8      0.6       0.25    0.731    0.02 0.0364
#>  9      0.25      0.25    0.731    0.02 0.0364
#> 10      0.833     0.25    0.731    0.02 0.0364
#> # … with 40 more rows
…
