Test clusters for differential usage — cluster_test_by • CellaRepertorium
…
#> # A tibble: 4 x 6
#>   term        estimate  std.error   statistic       p.value cluster_idx
#>   <chr>          <dbl>      <dbl>       <dbl>         <dbl>       <int>
#> 1 (Intercept)    -6.05       1.00 -6.04       0.00000000149           1
#> 2 popbalbc      -29.8  3057110.   -0.00000975 1.00                    1
#> 3 (Intercept)   -36.5      467.   -0.0783     0.938                   2
#> 4 popbalbc       30.5      467.    0.0654     0.948                   2
# Fixed effect analysis of each cluster, by chain
prev4 = ccdb_ex$contig_tbl %>% group_by(cluster_idx) %>%
summarize(n()) %>% filter(`n()`>= 4)
cluster_test_by(ccdb = ccdb_ex, fields = 'chain',
tbl = 'cluster_tbl', formula = ~ pop, filterset = cluster_filterset(white_list= prev4))
#> Fitting fixed logistic models to 7 clusters.
#> Fitting fixed logistic models to 90 clusters.
#> # A tibble: 194 x 7
#>    chain term        estimate std.error statistic  p.value cluster_idx
#>    <chr> <chr>          <dbl>     <dbl>     <dbl>    <dbl>       <int>
#>  1 TRA   (Intercept)  -3.10       0.273 -11.3     8.64e-30          26
#>  2 TRA   popbalbc     -0.601      0.450  -1.33    1.82e- 1          26
#>  3 TRA   (Intercept)  -4.67       0.580  -8.06    7.88e-16         213
#>  4 TRA   popbalbc     -1.13       1.16   -0.973   3.30e- 1         213
#>  5 TRA   (Intercept) -22.6     2678.     -0.00843 9.93e- 1         295
#>  6 TRA   popbalbc     18.2     2678.      0.00678 9.95e- 1         295
#>  7 TRA   (Intercept)  -5.08       0.709  -7.16    7.84e-13         442
#>  8 TRA   popbalbc     -0.0215     1.00   -0.0214  9.83e- 1         442
#>  9 TRA   (Intercept) -22.6     2678.     -0.00843 9.93e- 1         463
#> 10 TRA   popbalbc     18.2     2678.      0.00678 9.95e- 1         463
#> # … with 184 more rows
…
