Categorize the pairing present in a cell — ig_chain_recode • CellaRepertorium
…
    Value

    a tibble keyed by cells.

    Functions

ig_chain_recode: Recode a table with IG chains

tcr_chain_recode: Recode a table with TCR chains

    Examples

data(ccdb_ex)
enumerate_pairing(ccdb_ex)
#> # A tibble: 832 × 6
#>    pop   sample barcode              TRA   TRB raw_chain_type
#>    <chr> <chr>  <chr>              <dbl> <dbl> <chr>         
#>  1 b6    4      AAAGTAGTCGCGCCAA-1     1     2 TRA_TRB_TRB   
#>  2 b6    4      AACCATGCATTTGCCC-1     1     0 TRA           
#>  3 b6    4      AACTGGTGTCTGATCA-1     1     1 TRA_TRB       
#>  4 b6    4      AAGCCGCAGTAAGTAC-1     0     1 TRB           
#>  5 b6    4      AAGTCTGGTTCAACCA-1     1     1 TRA_TRB       
#>  6 b6    4      ACACCAAAGTCCAGGA-1     1     1 TRA_TRB       
#>  7 b6    4      ACATGGTAGTGTTTGC-1     1     1 TRA_TRB       
#>  8 b6    4      ACCCACTTCCACGACG-1     1     1 TRA_TRB       
#>  9 b6    4      ACGCCAGGTCCGAATT-1     0     1 TRB           
#> 10 b6    4      ACGCCAGTCCAATGGT-1     0     1 TRB           
#> # … with 822 more rows
enumerate_pairing(ccdb_ex, chain_recode_fun = 'guess')
#> # A tibble: 832 × 8
#>    pop   sample barcode              TRA   TRB raw_chain_type pairing canonical 
#>    <chr> <chr>  <chr>              <dbl> <dbl> <chr>          <chr>   <chr>     
#>  1 b6    4      AAAGTAGTCGCGCCAA-1     1     2 TRA_TRB_TRB    paired  double-be…
#>  2 b6    4      AACCATGCATTTGCCC-1     1     0 TRA            alpha   classical 
#>  3 b6    4      AACTGGTGTCTGATCA-1     1     1 TRA_TRB        paired  classical 
#>  4 b6    4      AAGCCGCAGTAAGTAC-1     0     1 TRB            beta    classical 
#>  5 b6    4      AAGTCTGGTTCAACCA-1     1     1 TRA_TRB        paired  classical 
#>  6 b6    4      ACACCAAAGTCCAGGA-1     1     1 TRA_TRB        paired  classical 
#>  7 b6    4      ACATGGTAGTGTTTGC-1     1     1 TRA_TRB        paired  classical 
#>  8 b6    4      ACCCACTTCCACGACG-1     1     1 TRA_TRB        paired  classical 
#>  9 b6    4      ACGCCAGGTCCGAATT-1     0     1 TRB            beta    classical 
#> 10 b6    4      ACGCCAGTCCAATGGT-1     0     1 TRB            beta    classical 
#> # … with 822 more rows
…
