Rank contigs, per cell, by experiment-wide prevalence of cluster_pk, which is added as the prevalence field — rank_prevalence_ccdb • CellaRepertorium
…
    ContigCellDB with modified contig_tbl

    Functions

rank_chain_ccdb: return a canonical contig by chain type, with TRB/IGH returned first. By default, ties are broken by umis and reads.

    Examples

data(ccdb_ex)
ccdb_ex = cluster_germline(ccdb_ex)
rank_prev = rank_prevalence_ccdb(ccdb_ex)
rank_prev$contig_tbl

#> # A tibble: 1,508 x 26
#>    v_gene j_gene chain cluster_idx anno_file pop   sample barcode is_cell
#>    <chr>  <chr>  <chr>       <int> <chr>     <chr> <chr>  <chr>   <lgl>  
#>  1 TRBV1… TRBJ2… TRB           557 /Users/a… b6    6      GAAGCA… TRUE   
#>  2 TRBV1… TRBJ2… TRB           557 /Users/a… balbc 1      TCAATC… TRUE   
#>  3 TRBV1… TRBJ2… TRB           557 /Users/a… b6    4      GTACGT… TRUE   
#>  4 TRBV1… TRBJ2… TRB           557 /Users/a… b6    5      GGCTGG… TRUE   
#>  5 TRBV1… TRBJ2… TRB           557 /Users/a… balbc 1      CCGGTA… TRUE   
#>  6 TRBV1… TRBJ2… TRB           557 /Users/a… balbc 3      CAACTA… TRUE   
#>  7 TRBV1… TRBJ2… TRB           557 /Users/a… balbc 3      TCAGGT… TRUE   
#>  8 TRBV1… TRBJ2… TRB           557 /Users/a… b6    5      AAGGTT… TRUE   
#>  9 TRBV1… TRBJ2… TRB           557 /Users/a… b6    6      GGGATG… TRUE   
#> 10 TRBV1… TRBJ2… TRB           557 /Users/a… b6    4      CTTTGC… TRUE   
#> # … with 1,498 more rows, and 17 more variables: contig_id <chr>,
#> #   high_confidence <lgl>, length <dbl>, d_gene <chr>, c_gene <chr>,
#> #   full_length <lgl>, productive <chr>, cdr3 <chr>, cdr3_nt <chr>,
#> #   reads <dbl>, umis <dbl>, raw_clonotype_id <chr>, raw_consensus_id <chr>,
#> #   celltype <chr>, prevalence <int>, n_grp <int>, grp_rank <int>
rank_chain = rank_chain_ccdb(ccdb_ex)
rank_chain$contig_tbl

#> # A tibble: 1,508 x 25
#>    v_gene j_gene chain cluster_idx anno_file pop   sample barcode is_cell
#>    <chr>  <chr>  <ord>       <int> <chr>     <chr> <chr>  <chr>   <lgl>  
#>  1 TRBV1… TRBJ2… TRB           541 /Users/a… balbc 1      GGACAT… TRUE   
#>  2 TRBV3  TRBJ1… TRB           662 /Users/a… b6    5      CACCAC… TRUE   
#>  3 TRBV16 TRBJ2… TRB           597 /Users/a… balbc 1      GGAATA… TRUE   
#>  4 TRBV1… TRBJ2… TRB           569 /Users/a… b6    6      TCTTCG… TRUE   
#>  5 TRBV17 TRBJ2… TRB           601 /Users/a… b6    6      CTAACT… TRUE   
#>  6 TRBV19 TRBJ2… TRB           615 /Users/a… b6    6      AGCGGT… TRUE   
#>  7 TRBV1… TRBJ1… TRB           530 /Users/a… b6    5      GGAGCA… TRUE   
#>  8 TRBV1  TRBJ1… TRB           511 /Users/a… b6    4      TGTATT… TRUE   
#>  9 TRBV17 TRBJ2… TRB           599 /Users/a… balbc 3      TGAGGG… TRUE   
#> 10 TRBV15 TRBJ1… TRB           582 /Users/a… balbc 2      ATCCGA… TRUE   
#> # … with 1,498 more rows, and 16 more variables: contig_id <chr>,
#> #   high_confidence <lgl>, length <dbl>, d_gene <chr>, c_gene <chr>,
#> #   full_length <lgl>, productive <chr>, cdr3 <chr>, cdr3_nt <chr>,
#> #   reads <dbl>, umis <dbl>, raw_clonotype_id <chr>, raw_consensus_id <chr>,
#> #   celltype <chr>, n_grp <int>, grp_rank <int>
…
